…
To find out the number of unique stations, select station name and line
and use `distinct()` to find all unique combinations that each
represents a unique station. The number of rows represent the number of
unique stations.

``` r
transit_df %>% 
  select(station_name, line) %>% 
  distinct
```

    ## # A tibble: 465 × 2
    ##    station_name             line    
    ##    <chr>                    <chr>   
    ##  1 25th St                  4 Avenue
    ##  2 36th St                  4 Avenue
    ##  3 45th St                  4 Avenue
    ##  4 53rd St                  4 Avenue
    ##  5 59th St                  4 Avenue
    ##  6 77th St                  4 Avenue
    ##  7 86th St                  4 Avenue
    ##  8 95th St                  4 Avenue
    ##  9 9th St                   4 Avenue
    ## 10 Atlantic Av-Barclays Ctr 4 Avenue
    ## # … with 455 more rows

Turns out, there are 465 unique stations.

To find out the number of ADA compliant stations, filter `ada == TRUE`
first and then select unique stations the same as before. The number of
rows represent the number of ADA compliant stations.

``` r
transit_df %>% 
  filter(ada == TRUE) %>% 
  select(station_name, line) %>% 
  distinct
```

    ## # A tibble: 84 × 2
    ##    station_name                   line           
    ##    <chr>                          <chr>          
    ##  1 Atlantic Av-Barclays Ctr       4 Avenue       
    ##  2 DeKalb Av                      4 Avenue       
    ##  3 Pacific St                     4 Avenue       
    ##  4 Grand Central                  42nd St Shuttle
    ##  5 34th St                        6 Avenue       
    ##  6 47-50th Sts Rockefeller Center 6 Avenue       
    ##  7 Church Av                      6 Avenue       
    ##  8 21st St                        63rd Street    
    ##  9 Lexington Av                   63rd Street    
    ## 10 Roosevelt Island               63rd Street    
    ## # … with 74 more rows
…
``` r
reformat_df = transit_df %>% 
  pivot_longer(
    route1:route11,
    names_to = "route_number",
    values_to = "route") 

reformat_df %>%   
  filter(route == "A") %>% 
  select(station_name, line) %>% 
  distinct
```

    ## # A tibble: 60 × 2
    ##    station_name                  line           
    ##    <chr>                         <chr>          
    ##  1 Times Square                  42nd St Shuttle
    ##  2 125th St                      8 Avenue       
    ##  3 145th St                      8 Avenue       
    ##  4 14th St                       8 Avenue       
    ##  5 168th St - Washington Heights 8 Avenue       
    ##  6 175th St                      8 Avenue       
    ##  7 181st St                      8 Avenue       
    ##  8 190th St                      8 Avenue       
    ##  9 34th St                       8 Avenue       
    ## 10 42nd St                       8 Avenue       
    ## # … with 50 more rows
…
Combine both data sheets to produce a single tidy dataset, .

``` r
trash_wheel_df = 
  bind_rows(mr_trash_df, professor_trash_df) %>% 
  arrange(dumpster_number, increasing = TRUE)
trash_wheel_df
```

    ## # A tibble: 641 × 15
    ##    dumpster_nu…¹ month  year date                weigh…² volum…³ plast…⁴ polys…⁵
    ##            <dbl> <chr> <dbl> <dttm>                <dbl>   <dbl>   <dbl>   <dbl>
    ##  1             1 May    2014 2014-05-16 00:00:00    4.31      18    1450    1820
    ##  2             1 Janu…  2017 2017-01-02 00:00:00    1.79      15    1950    6080
    ##  3             2 May    2014 2014-05-16 00:00:00    2.74      13    1120    1030
    ##  4             2 Janu…  2017 2017-01-30 00:00:00    1.58      15    9540   11230
    ##  5             3 May    2014 2014-05-16 00:00:00    3.45      15    2450    3100
    ##  6             3 Febr…  2017 2017-02-26 00:00:00    2.32      18    8350    9210
    ##  7             4 May    2014 2014-05-17 00:00:00    3.1       15    2380    2730
    ##  8             4 Febr…  2017 2017-02-26 00:00:00    3.72      15    8590    1030
    ##  9             5 May    2014 2014-05-17 00:00:00    4.06      18     980     870
    ## 10             5 Febr…  2017 2017-02-28 00:00:00    1.45      15    7830    9950
    ## # … with 631 more rows, 7 more variables: cigarette_butts <dbl>,
    ## #   glass_bottles <dbl>, grocery_bags <dbl>, chip_bags <dbl>,
    ## #   sports_balls <int>, homes_powered <dbl>, wheel_name <chr>, and abbreviated
    ## #   variable names ¹​dumpster_number, ²​`weight(tons)`, ³​`volume(cubic yards)`,
    ## #   ⁴​plastic_bottles, ⁵​polystyrene
…
